{
  "ChatGPT.nvim": { "branch": "main", "commit": "df53728e05129278d6ea26271ec086aa013bed90" },
  "Comment.nvim": { "branch": "master", "commit": "0236521ea582747b58869cb72f70ccfa967d2e89" },
  "LuaSnip": { "branch": "master", "commit": "a7a4b4682c4b3e2ba82b82a4e6e5f5a0e79dec32" },
  "auto-hlsearch.nvim": { "branch": "main", "commit": "8f28246d53e9478717ca3b51c8112083fbebd7e3" },
  "cmp-buffer": { "branch": "main", "commit": "3022dbc9166796b644a841a02de8dd1cc1d311fa" },
  "cmp-nvim-lsp": { "branch": "main", "commit": "5af77f54de1b16c34b23cba810150689a3a90312" },
  "cmp-path": { "branch": "main", "commit": "91ff86cd9c29299a64f968ebb45846c485725f23" },
  "cmp_luasnip": { "branch": "master", "commit": "05a9ab28b53f71d1aece421ef32fee2cb857a843" },
  "conform.nvim": { "branch": "master", "commit": "bf109f061fc3cd75394b7823923187ae045cbf22" },
  "crazy-node-movement": { "branch": "master", "commit": "d5cf01cc44c5715501d3d6fe439af7c8b7fa5df2" },
  "diffview.nvim": { "branch": "main", "commit": "3dc498c9777fe79156f3d32dddd483b8b3dbd95f" },
  "dressing.nvim": { "branch": "master", "commit": "18e5beb3845f085b6a33c24112b37988f3f93c06" },
  "easypick.nvim": { "branch": "main", "commit": "6ea5aef3eceba46a26091e2339c9b51d7e104648" },
  "flash.nvim": { "branch": "main", "commit": "48817af25f51c0590653bbc290866e4890fe1cbe" },
  "fzf-lua": { "branch": "main", "commit": "730c27697510b46b0b1a1f417cafb2db6107a218" },
  "gen.nvim": { "branch": "main", "commit": "2cb643b1a827bcdfc665a37d5f8174249d2d5bf5" },
  "gitsigns.nvim": { "branch": "main", "commit": "078041e9d060a386b0c9d3a8c7a7b019a35d3fb0" },
  "harpoon": { "branch": "master", "commit": "ccae1b9bec717ae284906b0bf83d720e59d12b91" },
  "headlines.nvim": { "branch": "master", "commit": "618ef1b2502c565c82254ef7d5b04402194d9ce3" },
  "highlight-undo.nvim": { "branch": "main", "commit": "50a6884a8476be04ecce8f1c4ed692c5000ef0a1" },
  "lazy.nvim": { "branch": "main", "commit": "83493db50a434a4c5c648faf41e2ead80f96e478" },
  "lsp_lines.nvim": { "branch": "main", "commit": "6f3defec73f7c87939e800e9afa5d0571b19b401" },
  "lspkind.nvim": { "branch": "master", "commit": "1735dd5a5054c1fb7feaf8e8658dbab925f4f0cf" },
  "lualine.nvim": { "branch": "master", "commit": "b5e8bb642138f787a2c1c5aedc2a78cb2cebbd67" },
  "mason-lspconfig.nvim": { "branch": "main", "commit": "2ba17cecfde8b8c7c7c287909a1e4de895223df6" },
  "mason.nvim": { "branch": "main", "commit": "751b1fcbf3d3b783fcf8d48865264a9bcd8f9b10" },
  "modus-themes.nvim": { "branch": "master", "commit": "71fd92fb7b606af51b48b0cffceba8193e2e8713" },
  "neo-tree.nvim": { "branch": "main", "commit": "8afbb06081ce1e4beb5b18945d14a608b10babeb" },
  "neogit": { "branch": "master", "commit": "bf2a353108b9046e907fc112701f6d876b50e465" },
  "neotest": { "branch": "master", "commit": "e07fe8241112274aae9947b98d255763738a1d52" },
  "neotest-elixir": { "branch": "master", "commit": "3117ca5442c02998847131c39551b76a6ceac9d7" },
  "noice.nvim": { "branch": "main", "commit": "bf67d70bd7265d075191e7812d8eb42b9791f737" },
  "nui.nvim": { "branch": "main", "commit": "cbd2668414331c10039278f558630ed19b93e69b" },
  "nvim-cmp": { "branch": "main", "commit": "04e0ca376d6abdbfc8b52180f8ea236cbfddf782" },
  "nvim-coverage": { "branch": "main", "commit": "cf4b5c61dfac977026a51a2bcad9173c272986ce" },
  "nvim-lint": { "branch": "master", "commit": "2669aabb8362fdc36aced5ba864b7135636ea863" },
  "nvim-lsp-file-operations": { "branch": "master", "commit": "223aca86b737dc66e9c51ebcda8788a8d9cc6cf2" },
  "nvim-lspconfig": { "branch": "master", "commit": "d67715d3b746a19e951b6b0a99663fa909bb9e64" },
  "nvim-nio": { "branch": "master", "commit": "ed70af8ad9d4dafdb55539ed2b4454aac2a2a0c3" },
  "nvim-notify": { "branch": "master", "commit": "5371f4bfc1f6d3adf4fe9d62cd3a9d44356bfd15" },
  "nvim-spectre": { "branch": "master", "commit": "1d23be1165c373a6026e42f3b3a5100126eaf81d" },
  "nvim-tinygit": { "branch": "main", "commit": "0a16b8c62250732faf6eb73764f09be29420552c" },
  "nvim-treesitter": { "branch": "master", "commit": "c28396de30b92a5af049037c2bd543a932a37a78" },
  "nvim-treesitter-context": { "branch": "master", "commit": "ce37c771550443d0b026c7999deceec1fd57981b" },
  "nvim-treesitter-refactor": { "branch": "master", "commit": "65ad2eca822dfaec2a3603119ec3cc8826a7859e" },
  "nvim-treesitter-textobjects": { "branch": "master", "commit": "d2a4ffc22d9d38d44edb73da007b3cf43451e9b4" },
  "nvim-ts-context-commentstring": { "branch": "main", "commit": "7ab799a9792f7cf3883cf28c6a00ad431f3d382a" },
  "nvim-web-devicons": { "branch": "master", "commit": "cb0c967c9723a76ccb1be0cc3a9a10e577d2f6ec" },
  "oil.nvim": { "branch": "master", "commit": "e462a3446505185adf063566f5007771b69027a1" },
  "orgmode": { "branch": "master", "commit": "bb89dfc44d889d8ababcb3c67c55c8be92cfc6e0" },
  "other.nvim": { "branch": "main", "commit": "d36a66af270b63459c080d4589126a06cf56578c" },
  "plenary.nvim": { "branch": "master", "commit": "f7adfc4b3f4f91aab6caebf42b3682945fbc35be" },
  "telescope-file-browser.nvim": { "branch": "master", "commit": "3bece973c5d80e7da447157822d5b0e73558d361" },
  "telescope-fzf-native.nvim": { "branch": "main", "commit": "9ef21b2e6bb6ebeaf349a0781745549bbb870d27" },
  "telescope-project.nvim": { "branch": "master", "commit": "1aaf16580a614601a7f7077d9639aeb457dc5559" },
  "telescope-ui-select.nvim": { "branch": "master", "commit": "6e51d7da30bd139a6950adf2a47fda6df9fa06d2" },
  "telescope-undo.nvim": { "branch": "main", "commit": "d3afc1c105535a90caec092ce27a113f77ba7b84" },
  "telescope.nvim": { "branch": "master", "commit": "221778e93bfaa58bce4be4e055ed2edecc26f799" },
  "toggleterm.nvim": { "branch": "main", "commit": "193786e0371e3286d3bc9aa0079da1cd41beaa62" },
  "trouble.nvim": { "branch": "main", "commit": "f1168feada93c0154ede4d1fe9183bf69bac54ea" },
  "vim-dadbod": { "branch": "master", "commit": "960bbb7de11b7282a68d579a64e838b487934493" },
  "vim-dadbod-completion": { "branch": "master", "commit": "c920cb0ba3dff4b1b0ed373e1c0b3007dec696c2" },
  "vim-dadbod-ui": { "branch": "master", "commit": "165699c573469e6a95b48d35052f848c340c5911" },
  "which-key.nvim": { "branch": "main", "commit": "4433e5ec9a507e5097571ed55c02ea9658fb268a" },
  "zk-nvim": { "branch": "main", "commit": "fb0962b75a680561f94cae0588b8da92ea8d2fae" }
}